{
  "article_list": [
    {
      "success": true,
      "page": 1,
      "totalRows": 25,
      "perPage": 10,
      "totalPages": 3,
      "data": [
        {
          "sid": "1",
          "title": "Carol（因為愛你）：影史上最強倒數十分鐘",
          "author": "死特",
          "avatar": "",
          "date": "2019-03-20",
          "content": "今年夏天上映了非常多部強檔同志/跨性別題材的電影，如話題波濤洶湧的《丹麥女孩》、艾倫佩姬帥彎少女的《扣押幸福》、莎拉華特經典同志小說荊棘之城的東方版《下女的誘惑》，以及這篇文要講的《Carol》。(「因為愛你」這名字翻得史上無敵爛，與電影原標題或內容關聯性極為薄弱，零記憶點 )以我這種無肉不歡(咦)的個性來說，當然是最愛下女的誘惑和CAROL。兩部我都看了兩次，而硬要比出哪一部更得我心，我想我會給CAROL。",
          "image": "test4.jpg",
          "link": "",
          "memberMarkSid": "1,2,3,4",
          "memberLikeSid": "3,4",
          "viewCounter": "10"
        },
        {
          "sid": "2",
          "title": "迪士尼、福斯正式合併　《X戰警》確定回歸《復仇者》",
          "author": "死特",
          "avatar": "",
          "date": "2019-03-20",
          "content": "<p>歷史性的一刻！迪士尼、福斯於紐約時間20日凌晨12點02分（台灣時間20日中午12點02分）正式合併，好萊塢6大巨頭重新洗牌，未來福斯將成為迪士尼的子公司之一，而迪士尼握有福斯版權包括《X戰警》、《異形》、《阿凡達》、《辛普森家庭》等，全球票房佔有率將從30％提升至40％，一年賺進超過75億美金，「死侍」萊恩雷諾斯戴上「米老鼠帽」曬照紀念「換東家」的這一天。</p>\r\n<p>迪士尼以71億美金（約2188億台幣）收購福斯，於20日凌晨12點02分合併生效。迪士尼CEO羅伯特艾格（Robert Bob Iger）紐約時間19日下午發表聲明：「這對我們來說是一個非凡的歷史性時刻，將為我們公司和股東創造巨大的長期價值，結合迪士尼、福斯多元且創意內容、經驗豐富的人才，創造卓越的全球娛樂公司，有利於領導一個充滿活力和改變的時代。」同時，迪士尼強調，合併主要是幫助公司「增加其國際足跡」、「擴大直接面對消費者的產品」。</p>\r\n<p>迪士尼旗下包括迪士尼電影公司、迪士尼動畫工作室等，2006年起併購皮克斯工作室，2009年買下漫威娛樂，並在隔年成立漫威工作室，2012年買下《星際大戰》版權擁有者盧卡斯影業，如今福斯影片也成為迪士尼的子公司之一，未來迪士尼將握有福斯版權包括《死侍》、《X戰警》、《驚奇四超人》、《異形》、《阿凡達》、《猩球崛起》、《金牌特務》、《艾莉塔》等以及電視作品《辛普森家庭》、《X檔案》等。</p>",
          "image": "test4.jpg",
          "link": "",
          "memberMarkSid": "1,2",
          "memberLikeSid": "3,4",
          "viewCounter": "10"
        },
        {
          "sid": "3",
          "title": "迪士尼、福斯正式合併　《X戰警》確定回歸《復仇者》",
          "author": "死特",
          "avatar": "",
          "date": "2019-03-20",
          "content": "<p>歷史性的一刻！迪士尼、福斯於紐約時間20日凌晨12點02分（台灣時間20日中午12點02分）正式合併，好萊塢6大巨頭重新洗牌，未來福斯將成為迪士尼的子公司之一，而迪士尼握有福斯版權包括《X戰警》、《異形》、《阿凡達》、《辛普森家庭》等，全球票房佔有率將從30％提升至40％，一年賺進超過75億美金，「死侍」萊恩雷諾斯戴上「米老鼠帽」曬照紀念「換東家」的這一天。</p>\r\n<p>迪士尼以71億美金（約2188億台幣）收購福斯，於20日凌晨12點02分合併生效。迪士尼CEO羅伯特艾格（Robert Bob Iger）紐約時間19日下午發表聲明：「這對我們來說是一個非凡的歷史性時刻，將為我們公司和股東創造巨大的長期價值，結合迪士尼、福斯多元且創意內容、經驗豐富的人才，創造卓越的全球娛樂公司，有利於領導一個充滿活力和改變的時代。」同時，迪士尼強調，合併主要是幫助公司「增加其國際足跡」、「擴大直接面對消費者的產品」。</p>\r\n<p>迪士尼旗下包括迪士尼電影公司、迪士尼動畫工作室等，2006年起併購皮克斯工作室，2009年買下漫威娛樂，並在隔年成立漫威工作室，2012年買下《星際大戰》版權擁有者盧卡斯影業，如今福斯影片也成為迪士尼的子公司之一，未來迪士尼將握有福斯版權包括《死侍》、《X戰警》、《驚奇四超人》、《異形》、《阿凡達》、《猩球崛起》、《金牌特務》、《艾莉塔》等以及電視作品《辛普森家庭》、《X檔案》等。</p>",
          "image": "test4.jpg",
          "link": "",
          "memberMarkSid": "1,2",
          "memberLikeSid": "3,4",
          "viewCounter": "10"
        },
        {
          "sid": "4",
          "title": "迪士尼、福斯正式合併　《X戰警》確定回歸《復仇者》",
          "author": "死特",
          "avatar": "",
          "date": "2019-03-20",
          "content": "<p>歷史性的一刻！迪士尼、福斯於紐約時間20日凌晨12點02分（台灣時間20日中午12點02分）正式合併，好萊塢6大巨頭重新洗牌，未來福斯將成為迪士尼的子公司之一，而迪士尼握有福斯版權包括《X戰警》、《異形》、《阿凡達》、《辛普森家庭》等，全球票房佔有率將從30％提升至40％，一年賺進超過75億美金，「死侍」萊恩雷諾斯戴上「米老鼠帽」曬照紀念「換東家」的這一天。</p>\r\n<p>迪士尼以71億美金（約2188億台幣）收購福斯，於20日凌晨12點02分合併生效。迪士尼CEO羅伯特艾格（Robert Bob Iger）紐約時間19日下午發表聲明：「這對我們來說是一個非凡的歷史性時刻，將為我們公司和股東創造巨大的長期價值，結合迪士尼、福斯多元且創意內容、經驗豐富的人才，創造卓越的全球娛樂公司，有利於領導一個充滿活力和改變的時代。」同時，迪士尼強調，合併主要是幫助公司「增加其國際足跡」、「擴大直接面對消費者的產品」。</p>\r\n<p>迪士尼旗下包括迪士尼電影公司、迪士尼動畫工作室等，2006年起併購皮克斯工作室，2009年買下漫威娛樂，並在隔年成立漫威工作室，2012年買下《星際大戰》版權擁有者盧卡斯影業，如今福斯影片也成為迪士尼的子公司之一，未來迪士尼將握有福斯版權包括《死侍》、《X戰警》、《驚奇四超人》、《異形》、《阿凡達》、《猩球崛起》、《金牌特務》、《艾莉塔》等以及電視作品《辛普森家庭》、《X檔案》等。</p>",
          "image": "test4.jpg",
          "link": "",
          "memberMarkSid": "1,2,3,4",
          "memberLikeSid": "3,4",
          "viewCounter": "10"
        }
      ],
      "errorCode": 0,
      "errorMsg": ""
    }
  ],
  "comments": [
    {
      "id": 1,
      "body": "some comment",
      "postId": 1
    }
  ],
  "profile": {
    "name": "typicode"
  }
}
